…
## Usage

``` r
library(rsniffs)
#> Welcome to rsniffs (0.0.0.1)
#> This package provides tools to access and query data from the SNIFFS statistics platform:
#>   https://sniffs.serfor.gob.pe/estadistica/es
#> Type ?rsniffs to get started or visit the documentation for examples and guidance.

# Example: Get bamboo-related data
pic_plantaciones_bambu()
#> # A tibble: 1,681 × 23
#>    ano_de_otorgamiento arffs       sede  numero_certificado titular departamento
#>                  <dbl> <chr>       <chr> <chr>              <chr>   <chr>       
#>  1                2018 GORE Amazo… CHAC… 01-AMA/REG-PLT-00… DELGAD… AMAZONAS    
#>  2                2018 GORE Amazo… CHAC… 01-AMA/REG-PLT-20… SANCHE… AMAZONAS    
#>  3                2018 GORE Amazo… CHAC… 01-AMA/REG-PLT-20… CHUQUI… AMAZONAS    
#>  4                2018 GORE Amazo… CHAC… 01-AMA/REG-PLT-20… CULQUI… AMAZONAS    
#>  5                2018 GORE Amazo… CHAC… 01-AMA/REG-PLT-20… CULQUI… AMAZONAS    
#>  6                2018 GORE Amazo… CHAC… 01-AMA/REG-PLT-20… CUIPAL… AMAZONAS    
#>  7                2018 GORE Amazo… CHAC… 01-AMA/REG-PLT-20… TAFUR … AMAZONAS    
#>  8                2018 GORE Amazo… CHAC… 01-AMA/REG-PLT-20… TAFUR … AMAZONAS    
#>  9                2018 GORE Amazo… CHAC… 01-AMA/REG-PLT-20… CORTEG… AMAZONAS    
#> 10                2018 GORE Amazo… CHAC… 01-AMA/REG-PLT-20… HERNAN… AMAZONAS    
#> # ℹ 1,671 more rows
#> # ℹ 17 more variables: provincia <chr>, distrito <chr>, zona <chr>,
#> #   sistema_plantacion <chr>, finalidad <chr>, ano_plantacion <dbl>,
#> #   mes_plantacion <chr>, generos_de_bambu <chr>,
#> #   especie_nombre_cientifico <chr>, especie_nombre_comun <chr>,
#> #   superficie_ha <dbl>, tipo_plantacion <chr>, produccion_estimada <dbl>,
#> #   unidad_medida <chr>, sistema_coordenada_id <dbl>, …
pic_movilizacion_bambu()
#> # A tibble: 230 × 11
#>    org_dep org_prov    org_distr dest_dep dest_prov dest_distr
#>    <chr>   <chr>       <chr>     <chr>    <chr>     <chr>     
#>  1 JUNIN   CHANCHAMAYO VITOC     TACNA    TACNA     TACNA     
#>  2 JUNIN   CHANCHAMAYO VITOC     TACNA    TACNA     TACNA     
#>  3 JUNIN   CHANCHAMAYO VITOC     TACNA    TACNA     TACNA     
#>  4 JUNIN   CHANCHAMAYO VITOC     TACNA    TACNA     TACNA     
#>  5 JUNIN   CHANCHAMAYO VITOC     TACNA    TACNA     TACNA     
#>  6 JUNIN   CHANCHAMAYO VITOC     TACNA    TACNA     TACNA     
#>  7 JUNIN   CHANCHAMAYO VITOC     TACNA    TACNA     TACNA     
#>  8 JUNIN   CHANCHAMAYO VITOC     TACNA    TACNA     TACNA     
#>  9 JUNIN   CHANCHAMAYO VITOC     TACNA    TACNA     TACNA     
#> 10 JUNIN   CHANCHAMAYO VITOC     TACNA    TACNA     TACNA     
#> # ℹ 220 more rows
#> # ℹ 5 more variables: especie_nombre_cientifico <chr>,
#> #   especie_nombre_comun <chr>, producto <chr>, volumen <dbl>,
#> #   unidad_medida <chr>
```
…
